Introduction to R
…
F2(F1(x)) is equivalent to x %>% F1() %>% F2()

As you can notice, to read the code F2(F1(x)) we have to go from the inside to the outside to see the order of execution of the functions, but when we read x %>% F1() %>% F2() we read from left to right, which is the same way we normally would read any text.

Suggestion: we can use the keys Ctrl + shift + m to insert the %>% operator.

We will use this to calculate the prevalence by county:

PRRS %>% 
  group_by(County) %>% 
  summarise(N = n(), positive = sum(Result)) %>% 
  mutate(Prev = positive/N) %>% 
  arrange(desc(Prev))

## # A tibble: 28 × 4
##    County            N positive  Prev
##    <chr>         <int>    <dbl> <dbl>
##  1 Story            37       30 0.811
##  2 Pottawattamie    51       34 0.667
##  3 Bremer           24       14 0.583
##  4 Hardin          105       50 0.476
##  5 Scott            57       22 0.386
##  6 Audubon          19        7 0.368
##  7 Grundy           34       11 0.324
##  8 Johnson          89       27 0.303
##  9 Wright          115       33 0.287
## 10 Keokuk           18        5 0.278
## # … with 18 more rows
…
